%YAML 1.1
%TAG !u! tag:unity3d.com,2011:
--- !u!1045 &1
EditorBuildSettings:
  m_ObjectHideFlags: 0
  serializedVersion: 2
  m_Scenes:
  - enabled: 1
    path: Assets/Scenes/Menu.unity
    guid: 57bb2ea181036c8429369d87038d416a
  - enabled: 1
    path: Assets/Scenes/Level.unity
    guid: 69575e6f2904c4c7dafafe28c5ec7068
  - enabled: 1
    path: Assets/Scenes/Store.unity
    guid: 0bd8f6a074f6d244b9050f7ee5c04f97
  m_configObjects: {}
